{
  "count": 1154,
  "next": "https://pokeapi.co/api/v2/pokemon/?offset=50&limit=50",
  "previous": null,
  "results": [
    {
      "name": 1,
      "url": 2
    }
  ]
}